1 10 20
100 200 125
201 210 89
900 1000 174
5 1000 179
10 5 20
9 4 20
1 1 1
5 1 8
112 113 21
100 1 119
10 10 7
112 3790 238
6216 5824 262
378 900 179
97336 94840 328
90029 94640 333
91317 92347 333
97344 90562 333
90733 95527 333
97182 98529 297
97038 98183 297
92418 90670 333
93305 99169 328
96083 96431 297
97100 92329 328
90904 92837 333
96771 99344 328
97625 93110 328
96576 91455 333
97869 99164 328
96006 97534 297
90733 95527 333
99762 93900 328
93220 92933 315
99284 94165 328
90141 96052 333
96051 93524 328
91047 97904 333
94192 93560 284
94709 98819 328
96939 98280 297
97979 99765 328
97516 98468 297
95003 97025 328
97390 98729 297
90828 97012 333
95445 96921 297
95418 95064 328
93960 95375 328
90419 95540 333
96908 99823 328
90199 93264 333
97698 92953 328
93769 98520 328
95078 92809 315
96511 90469 333
6732 9518 260
1064 8248 262
466 7016 262
4148 2561 238
508 5544 238
7505 2379 262
2871 8921 262
2210 9330 262
2005 4887 238
6206 6311 187
6414 3892 262
5664 9859 262
9913 9250 260
1789 9119 262
6205 3078 262
7463 3473 262
2800 7539 262
6639 3326 262
3507 7144 262
6403 3585 262
1742 8281 262
2381 5682 238
2976 1926 217
7266 3170 262
8863 7605 252
3716 2953 238
2045 6671 262
2088 6636 262
6314 2732 262
9372 5394 262
1850 8 182
7048 2664 262
3318 8699 262
8017 5859 262
5152 4472 210
3028 5650 238
5497 4350 215
7989 2444 262
3193 7750 262
8402 1632 262
959 9181 262
8437 6849 257
4835 627 238
2685 1758 209
8895 6965 252
1064 8248 262
466 7016 262
4148 2561 238
508 5544 238
7505 2379 262
2871 8921 262
2210 9330 262
2005 4887 238
6206 6311 187
6414 3892 262
5664 9859 262
9913 9250 260
1789 9119 262
6205 3078 262
7463 3473 262
2800 7539 262
6639 3326 262
3507 7144 262
6403 3585 262
1742 8281 262
2381 5682 238
2976 1926 217
7266 3170 262
8863 7605 252
3716 2953 238
2045 6671 262
15 30 112
25 1000 179
6314 2732 262
9372 5394 262
1850 8 182
7048 2664 262
3318 8699 262
8017 5859 262
5152 4472 210
3028 5650 238
5497 4350 215
7989 2444 262
3193 7750 262
8402 1632 262
959 9181 262
8437 6849 257
4835 627 238
2685 1758 209
8895 6965 252
1000 1001 143
