.......
----------------------------------------------------------------------
Ran 7 tests in 0.030s

OK
Name             Stmts   Miss Branch BrPart  Cover   Missing
------------------------------------------------------------
Collatz.py          27      0     10      0   100%
TestCollatz.py      32      0      0      0   100%
------------------------------------------------------------
TOTAL               59      0     10      0   100%
